…
 [1] FALSE FALSE FALSE FALSE FALSE FALSE  TRUE FALSE FALSE  TRUE
[11] FALSE  TRUE FALSE FALSE  TRUE FALSE  TRUE FALSE FALSE
> with(dct01,class=='character')
 [1] FALSE FALSE FALSE  TRUE  TRUE  TRUE FALSE  TRUE  TRUE FALSE
[11]  TRUE FALSE  TRUE  TRUE FALSE  TRUE FALSE  TRUE  TRUE
> class=='character'
Error in class == "character" : 
  comparison (1) is possible only for atomic and list types
> subset(dct01,num) %>% View()
> subset(dct01,num)$column
[1] "age_at_visit_days"          "v003_Strtn_LNC_2710_2_num" 
[3] "v004_RBC_Grp_RBC_789_8_num" "v005_Tmprtr_LNC_8310_5_num"
[5] "v006_Hrt_Rt_LNC_8867_4_num"
> dat01[,subset(dct01,num)$column]
# A tibble: 2,551 x 5
   age_at_visit_days v003_Strtn_LNC_2710_2_num
               <dbl>                     <dbl>
 1              4146                        NA
 2              6270                        NA
 3              6274                        NA
 4              6282                        NA
 5              6863                        81
 6              7717                        NA
 7              7718                        95
 8              7719                        96
 9              7722                        96
10              7870                        95
# ... with 2,541 more rows, and 3 more variables:
#   v004_RBC_Grp_RBC_789_8_num <dbl>,
#   v005_Tmprtr_LNC_8310_5_num <dbl>,
#   v006_Hrt_Rt_LNC_8867_4_num <dbl>
…
